…
test_vec <- 1:1000

microbenchmark(func_wo_preallocate(test_vec),
               func_with_preallocate(test_vec),
               times = 1000L)
```

    ## # A tibble: 2,000 x 2
    ##    expr                               time
    ##    <fct>                             <dbl>
    ##  1 func_with_preallocate(test_vec) 3376600
    ##  2 func_with_preallocate(test_vec)  402900
    ##  3 func_wo_preallocate(test_vec)   3551500
    ##  4 func_with_preallocate(test_vec)  455200
    ##  5 func_with_preallocate(test_vec)  491000
    ##  6 func_with_preallocate(test_vec)  431700
    ##  7 func_wo_preallocate(test_vec)   1040000
    ##  8 func_with_preallocate(test_vec)  399100
    ##  9 func_wo_preallocate(test_vec)   1258400
    ## 10 func_wo_preallocate(test_vec)   1674400
    ## # ... with 1,990 more rows
…
