…
### 23.4.5 Exercises

1.  What happens if you repeat the analysis of `sim2` using a model
    without an intercept. What happens to the model equation? What
    happens to the predictions?

``` r
mod2_no_int <- lm(y ~ x - 1, data = sim2)
mod2 <- lm(y ~ x, data = sim2)

model_matrix(sim2, y ~ x - 1)
```

    ## # A tibble: 40 x 4
    ##       xa    xb    xc    xd
    ##    <dbl> <dbl> <dbl> <dbl>
    ##  1     1     0     0     0
    ##  2     1     0     0     0
    ##  3     1     0     0     0
    ##  4     1     0     0     0
    ##  5     1     0     0     0
    ##  6     1     0     0     0
    ##  7     1     0     0     0
    ##  8     1     0     0     0
    ##  9     1     0     0     0
    ## 10     1     0     0     0
    ## # ... with 30 more rows

``` r
model_matrix(sim2, y ~ x)
```

    ## # A tibble: 40 x 4
    ##    `(Intercept)`    xb    xc    xd
    ##            <dbl> <dbl> <dbl> <dbl>
    ##  1             1     0     0     0
    ##  2             1     0     0     0
    ##  3             1     0     0     0
    ##  4             1     0     0     0
    ##  5             1     0     0     0
    ##  6             1     0     0     0
    ##  7             1     0     0     0
    ##  8             1     0     0     0
    ##  9             1     0     0     0
    ## 10             1     0     0     0
    ## # ... with 30 more rows

``` r
sim2 %>% 
  spread_predictions(mod2_no_int, mod2)
```

    ## # A tibble: 40 x 4
    ##    x          y mod2_no_int  mod2
    ##    <chr>  <dbl>       <dbl> <dbl>
    ##  1 a      1.94         1.15  1.15
    ##  2 a      1.18         1.15  1.15
    ##  3 a      1.24         1.15  1.15
    ##  4 a      2.62         1.15  1.15
    ##  5 a      1.11         1.15  1.15
    ##  6 a      0.866        1.15  1.15
    ##  7 a     -0.910        1.15  1.15
    ##  8 a      0.721        1.15  1.15
    ##  9 a      0.687        1.15  1.15
    ## 10 a      2.07         1.15  1.15
    ## # ... with 30 more rows
…
No including the intercept in the second model allows this variable to
stay in the final estimation.

2.  Use `model_matrix()` to explore to explore the equations generated
    for the models I fit to `sim3` and `sim4`. Why is `*` a good
    shorthand for interaction?

``` r
model_matrix(sim3, y ~ x1 + x2)
```

    ## # A tibble: 120 x 5
    ##    `(Intercept)`    x1   x2b   x2c   x2d
    ##            <dbl> <dbl> <dbl> <dbl> <dbl>
    ##  1             1     1     0     0     0
    ##  2             1     1     0     0     0
    ##  3             1     1     0     0     0
    ##  4             1     1     1     0     0
    ##  5             1     1     1     0     0
    ##  6             1     1     1     0     0
    ##  7             1     1     0     1     0
    ##  8             1     1     0     1     0
    ##  9             1     1     0     1     0
    ## 10             1     1     0     0     1
    ## # ... with 110 more rows

``` r
model_matrix(sim3, y ~ x1 * x2)
```

    ## # A tibble: 120 x 8
    ##    `(Intercept)`    x1   x2b   x2c   x2d `x1:x2b` `x1:x2c` `x1:x2d`
    ##            <dbl> <dbl> <dbl> <dbl> <dbl>    <dbl>    <dbl>    <dbl>
    ##  1             1     1     0     0     0        0        0        0
    ##  2             1     1     0     0     0        0        0        0
    ##  3             1     1     0     0     0        0        0        0
    ##  4             1     1     1     0     0        1        0        0
    ##  5             1     1     1     0     0        1        0        0
    ##  6             1     1     1     0     0        1        0        0
    ##  7             1     1     0     1     0        0        1        0
    ##  8             1     1     0     1     0        0        1        0
    ##  9             1     1     0     1     0        0        1        0
    ## 10             1     1     0     0     1        0        0        1
    ## # ... with 110 more rows

``` r
model_matrix(sim4, y ~ x1 + x2)
```

    ## # A tibble: 300 x 3
    ##    `(Intercept)`    x1     x2
    ##            <dbl> <dbl>  <dbl>
    ##  1             1    -1 -1    
    ##  2             1    -1 -1    
    ##  3             1    -1 -1    
    ##  4             1    -1 -0.778
    ##  5             1    -1 -0.778
    ##  6             1    -1 -0.778
    ##  7             1    -1 -0.556
    ##  8             1    -1 -0.556
    ##  9             1    -1 -0.556
    ## 10             1    -1 -0.333
    ## # ... with 290 more rows

``` r
model_matrix(sim4, y ~ x1 * x2)
```

    ## # A tibble: 300 x 4
    ##    `(Intercept)`    x1     x2 `x1:x2`
    ##            <dbl> <dbl>  <dbl>   <dbl>
    ##  1             1    -1 -1       1    
    ##  2             1    -1 -1       1    
    ##  3             1    -1 -1       1    
    ##  4             1    -1 -0.778   0.778
    ##  5             1    -1 -0.778   0.778
    ##  6             1    -1 -0.778   0.778
    ##  7             1    -1 -0.556   0.556
    ##  8             1    -1 -0.556   0.556
    ##  9             1    -1 -0.556   0.556
    ## 10             1    -1 -0.333   0.333
    ## # ... with 290 more rows
…
``` r
mod1_matrix <- function(data) {
  data %>% 
    mutate(Intercept = 1,
           x2b = ifelse(x2 == "b", yes = 1, no = 0),
           x2c = ifelse(x2 == "c", yes = 1, no = 0),
           x2d = ifelse(x2 == "d", yes = 1, no = 0)) %>% 
    select(Intercept, x1, starts_with("x2"), -x2)
  
}

mod1_matrix(sim3)
```

    ## # A tibble: 120 x 5
    ##    Intercept    x1   x2b   x2c   x2d
    ##        <dbl> <int> <dbl> <dbl> <dbl>
    ##  1         1     1     0     0     0
    ##  2         1     1     0     0     0
    ##  3         1     1     0     0     0
    ##  4         1     1     1     0     0
    ##  5         1     1     1     0     0
    ##  6         1     1     1     0     0
    ##  7         1     1     0     1     0
    ##  8         1     1     0     1     0
    ##  9         1     1     0     1     0
    ## 10         1     1     0     0     1
    ## # ... with 110 more rows
…
}

mod2_matrix(sim3)
```

    ## # A tibble: 120 x 8
    ##    Intercept    x1   x2b   x2c   x2d `x1:x2b` `x1:x2c` `x1:x2d`
    ##        <dbl> <int> <dbl> <dbl> <dbl>    <dbl>    <dbl>    <dbl>
    ##  1         1     1     0     0     0        0        0        0
    ##  2         1     1     0     0     0        0        0        0
    ##  3         1     1     0     0     0        0        0        0
    ##  4         1     1     1     0     0        1        0        0
    ##  5         1     1     1     0     0        1        0        0
    ##  6         1     1     1     0     0        1        0        0
    ##  7         1     1     0     1     0        0        1        0
    ##  8         1     1     0     1     0        0        1        0
    ##  9         1     1     0     1     0        0        1        0
    ## 10         1     1     0     0     1        0        0        1
    ## # ... with 110 more rows
…
